fifo/sim/netlist_sim/simv_netlist.log
Command: /home/users5/ec385912/ECE527LSP22/ece527l-lab10/fifo/sim/netlist_sim/./simv -l simv_netlist.log
Chronologic VCS simulator copyright 1991-2017
Contains Synopsys proprietary information.
Compiler version N-2017.12-SP2-2_Full64; Runtime version N-2017.12-SP2-2_Full64;  May  7 21:33 2022
Doing SDF annotation ...... Done
VCD+ Writer N-2017.12-SP2-2_Full64 Copyright (c) 1991-2017 by Synopsys Inc.
WR: 1, OE: 1, DIN: xx | DOUT: xx, EMPTY: x, FULL: x
WR: 1, OE: 1, DIN: xx | DOUT: xx, EMPTY: x, FULL: 0
WR: 1, OE: 1, DIN: xx | DOUT: xx, EMPTY: 1, FULL: 0
WR: 0, OE: 1, DIN: 00 | DOUT: xx, EMPTY: 1, FULL: 0
WR: 0, OE: 1, DIN: 00 | DOUT: xx, EMPTY: 0, FULL: 0
WR: 0, OE: 1, DIN: 01 | DOUT: xx, EMPTY: 0, FULL: 0
WR: 0, OE: 1, DIN: 02 | DOUT: xx, EMPTY: 0, FULL: 0
WR: 0, OE: 1, DIN: 03 | DOUT: xx, EMPTY: 0, FULL: 0
WR: 0, OE: 1, DIN: 03 | DOUT: xx, EMPTY: 1, FULL: 0
WR: 0, OE: 1, DIN: 03 | DOUT: xx, EMPTY: 0, FULL: 0
WR: 0, OE: 1, DIN: 04 | DOUT: xx, EMPTY: 0, FULL: 0
WR: 0, OE: 1, DIN: 05 | DOUT: xx, EMPTY: 0, FULL: 0
WR: 0, OE: 1, DIN: 06 | DOUT: xx, EMPTY: 0, FULL: 0
WR: 0, OE: 1, DIN: 07 | DOUT: xx, EMPTY: 0, FULL: 0
WR: 0, OE: 1, DIN: 08 | DOUT: xx, EMPTY: 0, FULL: 0
WR: 0, OE: 1, DIN: 09 | DOUT: xx, EMPTY: 0, FULL: 0
WR: 0, OE: 1, DIN: 0a | DOUT: xx, EMPTY: 0, FULL: 0
WR: 0, OE: 1, DIN: 0b | DOUT: xx, EMPTY: 0, FULL: 0
WR: 0, OE: 1, DIN: 0c | DOUT: xx, EMPTY: 0, FULL: 0
WR: 0, OE: 1, DIN: 0d | DOUT: xx, EMPTY: 0, FULL: 0
WR: 0, OE: 1, DIN: 0e | DOUT: xx, EMPTY: 0, FULL: 0
WR: 0, OE: 1, DIN: 0f | DOUT: xx, EMPTY: 0, FULL: 0
WR: 0, OE: 1, DIN: 10 | DOUT: xx, EMPTY: 0, FULL: 0
WR: 0, OE: 1, DIN: 11 | DOUT: xx, EMPTY: 0, FULL: 0
WR: 0, OE: 1, DIN: 12 | DOUT: xx, EMPTY: 0, FULL: 0
WR: 0, OE: 1, DIN: 13 | DOUT: xx, EMPTY: 0, FULL: 0
WR: 0, OE: 1, DIN: 14 | DOUT: xx, EMPTY: 0, FULL: 0
WR: 0, OE: 1, DIN: 15 | DOUT: xx, EMPTY: 0, FULL: 0
WR: 0, OE: 1, DIN: 16 | DOUT: xx, EMPTY: 0, FULL: 0
WR: 0, OE: 1, DIN: 17 | DOUT: xx, EMPTY: 0, FULL: 0
WR: 0, OE: 1, DIN: 18 | DOUT: xx, EMPTY: 0, FULL: 0
WR: 0, OE: 1, DIN: 19 | DOUT: xx, EMPTY: 0, FULL: 0
WR: 0, OE: 1, DIN: 1a | DOUT: xx, EMPTY: 0, FULL: 0
WR: 0, OE: 1, DIN: 1b | DOUT: xx, EMPTY: 0, FULL: 0
WR: 0, OE: 1, DIN: 1c | DOUT: xx, EMPTY: 0, FULL: 0
WR: 0, OE: 1, DIN: 1d | DOUT: xx, EMPTY: 0, FULL: 0
WR: 0, OE: 1, DIN: 1e | DOUT: xx, EMPTY: 0, FULL: 0
WR: 0, OE: 1, DIN: 1f | DOUT: xx, EMPTY: 0, FULL: 0
WR: 0, OE: 1, DIN: 20 | DOUT: xx, EMPTY: 0, FULL: 0
WR: 0, OE: 1, DIN: 21 | DOUT: xx, EMPTY: 0, FULL: 0
WR: 0, OE: 1, DIN: 22 | DOUT: xx, EMPTY: 0, FULL: 0
WR: 0, OE: 1, DIN: 23 | DOUT: xx, EMPTY: 0, FULL: 0
WR: 0, OE: 1, DIN: 24 | DOUT: xx, EMPTY: 0, FULL: 0
WR: 0, OE: 1, DIN: 25 | DOUT: xx, EMPTY: 0, FULL: 0
WR: 0, OE: 1, DIN: 26 | DOUT: xx, EMPTY: 0, FULL: 0
WR: 0, OE: 1, DIN: 27 | DOUT: xx, EMPTY: 0, FULL: 0
WR: 0, OE: 1, DIN: 28 | DOUT: xx, EMPTY: 0, FULL: 0
WR: 0, OE: 1, DIN: 29 | DOUT: xx, EMPTY: 0, FULL: 0
WR: 0, OE: 1, DIN: 2a | DOUT: xx, EMPTY: 0, FULL: 0
WR: 0, OE: 1, DIN: 2b | DOUT: xx, EMPTY: 0, FULL: 0
WR: 0, OE: 1, DIN: 2c | DOUT: xx, EMPTY: 0, FULL: 0
WR: 0, OE: 1, DIN: 2d | DOUT: xx, EMPTY: 0, FULL: 0
WR: 0, OE: 1, DIN: 2e | DOUT: xx, EMPTY: 0, FULL: 0
WR: 0, OE: 1, DIN: 2f | DOUT: xx, EMPTY: 0, FULL: 0
WR: 0, OE: 1, DIN: 30 | DOUT: xx, EMPTY: 0, FULL: 0
WR: 0, OE: 1, DIN: 31 | DOUT: xx, EMPTY: 0, FULL: 0
WR: 0, OE: 1, DIN: 32 | DOUT: xx, EMPTY: 0, FULL: 0
WR: 0, OE: 1, DIN: 33 | DOUT: xx, EMPTY: 0, FULL: 0
WR: 0, OE: 1, DIN: 34 | DOUT: xx, EMPTY: 0, FULL: 0
WR: 0, OE: 1, DIN: 35 | DOUT: xx, EMPTY: 0, FULL: 0
WR: 0, OE: 1, DIN: 36 | DOUT: xx, EMPTY: 0, FULL: 0
WR: 0, OE: 1, DIN: 37 | DOUT: xx, EMPTY: 0, FULL: 0
WR: 0, OE: 1, DIN: 38 | DOUT: xx, EMPTY: 0, FULL: 0
WR: 0, OE: 1, DIN: 39 | DOUT: xx, EMPTY: 0, FULL: 0
WR: 0, OE: 1, DIN: 3a | DOUT: xx, EMPTY: 0, FULL: 0
WR: 0, OE: 1, DIN: 3b | DOUT: xx, EMPTY: 0, FULL: 0
WR: 0, OE: 1, DIN: 3c | DOUT: xx, EMPTY: 0, FULL: 0
WR: 0, OE: 1, DIN: 3d | DOUT: xx, EMPTY: 0, FULL: 0
WR: 0, OE: 1, DIN: 3e | DOUT: xx, EMPTY: 0, FULL: 0
WR: 0, OE: 1, DIN: 3f | DOUT: xx, EMPTY: 0, FULL: 0
WR: 0, OE: 1, DIN: 40 | DOUT: xx, EMPTY: 0, FULL: 0
WR: 0, OE: 1, DIN: 41 | DOUT: xx, EMPTY: 0, FULL: 0
WR: 0, OE: 1, DIN: 42 | DOUT: xx, EMPTY: 0, FULL: 0
WR: 0, OE: 1, DIN: 43 | DOUT: xx, EMPTY: 0, FULL: 0
WR: 0, OE: 1, DIN: 44 | DOUT: xx, EMPTY: 0, FULL: 0
WR: 0, OE: 1, DIN: 45 | DOUT: xx, EMPTY: 0, FULL: 0
WR: 0, OE: 1, DIN: 46 | DOUT: xx, EMPTY: 0, FULL: 0
WR: 0, OE: 1, DIN: 47 | DOUT: xx, EMPTY: 0, FULL: 0
WR: 0, OE: 1, DIN: 48 | DOUT: xx, EMPTY: 0, FULL: 0
WR: 0, OE: 1, DIN: 49 | DOUT: xx, EMPTY: 0, FULL: 0
WR: 0, OE: 1, DIN: 4a | DOUT: xx, EMPTY: 0, FULL: 0
WR: 0, OE: 1, DIN: 4b | DOUT: xx, EMPTY: 0, FULL: 0
WR: 0, OE: 1, DIN: 4c | DOUT: xx, EMPTY: 0, FULL: 0
WR: 0, OE: 1, DIN: 4d | DOUT: xx, EMPTY: 0, FULL: 0
WR: 0, OE: 1, DIN: 4e | DOUT: xx, EMPTY: 0, FULL: 0
WR: 0, OE: 1, DIN: 4f | DOUT: xx, EMPTY: 0, FULL: 0
WR: 0, OE: 1, DIN: 50 | DOUT: xx, EMPTY: 0, FULL: 0
WR: 0, OE: 1, DIN: 51 | DOUT: xx, EMPTY: 0, FULL: 0
WR: 0, OE: 1, DIN: 52 | DOUT: xx, EMPTY: 0, FULL: 0
WR: 0, OE: 1, DIN: 53 | DOUT: xx, EMPTY: 0, FULL: 0
WR: 0, OE: 1, DIN: 54 | DOUT: xx, EMPTY: 0, FULL: 0
WR: 0, OE: 1, DIN: 55 | DOUT: xx, EMPTY: 0, FULL: 0
WR: 0, OE: 1, DIN: 56 | DOUT: xx, EMPTY: 0, FULL: 0
WR: 0, OE: 1, DIN: 57 | DOUT: xx, EMPTY: 0, FULL: 0
WR: 0, OE: 1, DIN: 58 | DOUT: xx, EMPTY: 0, FULL: 0
WR: 0, OE: 1, DIN: 59 | DOUT: xx, EMPTY: 0, FULL: 0
WR: 0, OE: 1, DIN: 5a | DOUT: xx, EMPTY: 0, FULL: 0
WR: 0, OE: 1, DIN: 5b | DOUT: xx, EMPTY: 0, FULL: 0
WR: 0, OE: 1, DIN: 5c | DOUT: xx, EMPTY: 0, FULL: 0
WR: 0, OE: 1, DIN: 5d | DOUT: xx, EMPTY: 0, FULL: 0
WR: 0, OE: 1, DIN: 5e | DOUT: xx, EMPTY: 0, FULL: 0
WR: 0, OE: 1, DIN: 5f | DOUT: xx, EMPTY: 0, FULL: 0
WR: 0, OE: 1, DIN: 60 | DOUT: xx, EMPTY: 0, FULL: 0
WR: 0, OE: 1, DIN: 61 | DOUT: xx, EMPTY: 0, FULL: 0
WR: 0, OE: 1, DIN: 62 | DOUT: xx, EMPTY: 0, FULL: 0
WR: 0, OE: 1, DIN: 63 | DOUT: xx, EMPTY: 0, FULL: 0
WR: 0, OE: 1, DIN: 64 | DOUT: xx, EMPTY: 0, FULL: 0
WR: 0, OE: 1, DIN: 65 | DOUT: xx, EMPTY: 0, FULL: 0
WR: 0, OE: 1, DIN: 66 | DOUT: xx, EMPTY: 0, FULL: 0
WR: 0, OE: 1, DIN: 67 | DOUT: xx, EMPTY: 0, FULL: 0
WR: 0, OE: 1, DIN: 68 | DOUT: xx, EMPTY: 0, FULL: 0
WR: 0, OE: 1, DIN: 69 | DOUT: xx, EMPTY: 0, FULL: 0
WR: 0, OE: 1, DIN: 6a | DOUT: xx, EMPTY: 0, FULL: 0
WR: 0, OE: 1, DIN: 6b | DOUT: xx, EMPTY: 0, FULL: 0
WR: 0, OE: 1, DIN: 6c | DOUT: xx, EMPTY: 0, FULL: 0
WR: 0, OE: 1, DIN: 6d | DOUT: xx, EMPTY: 0, FULL: 0
WR: 0, OE: 1, DIN: 6e | DOUT: xx, EMPTY: 0, FULL: 0
WR: 0, OE: 1, DIN: 6f | DOUT: xx, EMPTY: 0, FULL: 0
WR: 0, OE: 1, DIN: 70 | DOUT: xx, EMPTY: 0, FULL: 0
WR: 0, OE: 1, DIN: 71 | DOUT: xx, EMPTY: 0, FULL: 0
WR: 0, OE: 1, DIN: 72 | DOUT: xx, EMPTY: 0, FULL: 0
WR: 0, OE: 1, DIN: 73 | DOUT: xx, EMPTY: 0, FULL: 0
WR: 0, OE: 1, DIN: 74 | DOUT: xx, EMPTY: 0, FULL: 0
WR: 0, OE: 1, DIN: 75 | DOUT: xx, EMPTY: 0, FULL: 0
WR: 0, OE: 1, DIN: 76 | DOUT: xx, EMPTY: 0, FULL: 0
WR: 0, OE: 1, DIN: 77 | DOUT: xx, EMPTY: 0, FULL: 0
WR: 0, OE: 1, DIN: 78 | DOUT: xx, EMPTY: 0, FULL: 0
WR: 0, OE: 1, DIN: 79 | DOUT: xx, EMPTY: 0, FULL: 0
WR: 0, OE: 1, DIN: 7a | DOUT: xx, EMPTY: 0, FULL: 0
WR: 0, OE: 1, DIN: 7b | DOUT: xx, EMPTY: 0, FULL: 0
WR: 0, OE: 1, DIN: 7c | DOUT: xx, EMPTY: 0, FULL: 0
WR: 0, OE: 1, DIN: 7d | DOUT: xx, EMPTY: 0, FULL: 0
WR: 0, OE: 1, DIN: 7e | DOUT: xx, EMPTY: 0, FULL: 0
WR: 0, OE: 1, DIN: 7f | DOUT: xx, EMPTY: 0, FULL: 0
WR: 0, OE: 1, DIN: 80 | DOUT: xx, EMPTY: 0, FULL: 0
WR: 0, OE: 1, DIN: 81 | DOUT: xx, EMPTY: 0, FULL: 0
WR: 0, OE: 1, DIN: 82 | DOUT: xx, EMPTY: 0, FULL: 0
WR: 0, OE: 1, DIN: 83 | DOUT: xx, EMPTY: 0, FULL: 0
WR: 0, OE: 1, DIN: 84 | DOUT: xx, EMPTY: 0, FULL: 0
WR: 0, OE: 1, DIN: 85 | DOUT: xx, EMPTY: 0, FULL: 0
WR: 0, OE: 1, DIN: 86 | DOUT: xx, EMPTY: 0, FULL: 0
WR: 0, OE: 1, DIN: 87 | DOUT: xx, EMPTY: 0, FULL: 0
WR: 0, OE: 1, DIN: 88 | DOUT: xx, EMPTY: 0, FULL: 0
WR: 0, OE: 1, DIN: 89 | DOUT: xx, EMPTY: 0, FULL: 0
WR: 0, OE: 1, DIN: 8a | DOUT: xx, EMPTY: 0, FULL: 0
WR: 0, OE: 1, DIN: 8b | DOUT: xx, EMPTY: 0, FULL: 0
WR: 0, OE: 1, DIN: 8c | DOUT: xx, EMPTY: 0, FULL: 0
WR: 0, OE: 1, DIN: 8d | DOUT: xx, EMPTY: 0, FULL: 0
WR: 0, OE: 1, DIN: 8e | DOUT: xx, EMPTY: 0, FULL: 0
WR: 0, OE: 1, DIN: 8f | DOUT: xx, EMPTY: 0, FULL: 0
WR: 0, OE: 1, DIN: 90 | DOUT: xx, EMPTY: 0, FULL: 0
WR: 0, OE: 1, DIN: 91 | DOUT: xx, EMPTY: 0, FULL: 0
WR: 0, OE: 1, DIN: 92 | DOUT: xx, EMPTY: 0, FULL: 0
WR: 0, OE: 1, DIN: 93 | DOUT: xx, EMPTY: 0, FULL: 0
WR: 0, OE: 1, DIN: 94 | DOUT: xx, EMPTY: 0, FULL: 0
WR: 0, OE: 1, DIN: 95 | DOUT: xx, EMPTY: 0, FULL: 0
WR: 0, OE: 1, DIN: 96 | DOUT: xx, EMPTY: 0, FULL: 0
WR: 0, OE: 1, DIN: 97 | DOUT: xx, EMPTY: 0, FULL: 0
WR: 0, OE: 1, DIN: 98 | DOUT: xx, EMPTY: 0, FULL: 0
WR: 0, OE: 1, DIN: 99 | DOUT: xx, EMPTY: 0, FULL: 0
WR: 0, OE: 1, DIN: 9a | DOUT: xx, EMPTY: 0, FULL: 0
WR: 0, OE: 1, DIN: 9b | DOUT: xx, EMPTY: 0, FULL: 0
WR: 0, OE: 1, DIN: 9c | DOUT: xx, EMPTY: 0, FULL: 0
WR: 0, OE: 1, DIN: 9d | DOUT: xx, EMPTY: 0, FULL: 0
WR: 0, OE: 1, DIN: 9e | DOUT: xx, EMPTY: 0, FULL: 0
WR: 0, OE: 1, DIN: 9f | DOUT: xx, EMPTY: 0, FULL: 0
WR: 0, OE: 1, DIN: a0 | DOUT: xx, EMPTY: 0, FULL: 0
WR: 0, OE: 1, DIN: a1 | DOUT: xx, EMPTY: 0, FULL: 0
WR: 0, OE: 1, DIN: a2 | DOUT: xx, EMPTY: 0, FULL: 0
WR: 0, OE: 1, DIN: a3 | DOUT: xx, EMPTY: 0, FULL: 0
WR: 0, OE: 1, DIN: a4 | DOUT: xx, EMPTY: 0, FULL: 0
WR: 0, OE: 1, DIN: a5 | DOUT: xx, EMPTY: 0, FULL: 0
WR: 0, OE: 1, DIN: a6 | DOUT: xx, EMPTY: 0, FULL: 0
WR: 0, OE: 1, DIN: a7 | DOUT: xx, EMPTY: 0, FULL: 0
WR: 0, OE: 1, DIN: a8 | DOUT: xx, EMPTY: 0, FULL: 0
WR: 0, OE: 1, DIN: a9 | DOUT: xx, EMPTY: 0, FULL: 0
WR: 0, OE: 1, DIN: aa | DOUT: xx, EMPTY: 0, FULL: 0
WR: 0, OE: 1, DIN: ab | DOUT: xx, EMPTY: 0, FULL: 0
WR: 0, OE: 1, DIN: ac | DOUT: xx, EMPTY: 0, FULL: 0
WR: 0, OE: 1, DIN: ad | DOUT: xx, EMPTY: 0, FULL: 0
WR: 0, OE: 1, DIN: ae | DOUT: xx, EMPTY: 0, FULL: 0
WR: 0, OE: 1, DIN: af | DOUT: xx, EMPTY: 0, FULL: 0
WR: 0, OE: 1, DIN: b0 | DOUT: xx, EMPTY: 0, FULL: 0
WR: 0, OE: 1, DIN: b1 | DOUT: xx, EMPTY: 0, FULL: 0
WR: 0, OE: 1, DIN: b2 | DOUT: xx, EMPTY: 0, FULL: 0
WR: 0, OE: 1, DIN: b3 | DOUT: xx, EMPTY: 0, FULL: 0
WR: 0, OE: 1, DIN: b4 | DOUT: xx, EMPTY: 0, FULL: 0
WR: 0, OE: 1, DIN: b5 | DOUT: xx, EMPTY: 0, FULL: 0
WR: 0, OE: 1, DIN: b6 | DOUT: xx, EMPTY: 0, FULL: 0
WR: 0, OE: 1, DIN: b7 | DOUT: xx, EMPTY: 0, FULL: 0
WR: 0, OE: 1, DIN: b8 | DOUT: xx, EMPTY: 0, FULL: 0
WR: 0, OE: 1, DIN: b9 | DOUT: xx, EMPTY: 0, FULL: 0
WR: 0, OE: 1, DIN: ba | DOUT: xx, EMPTY: 0, FULL: 0
WR: 0, OE: 1, DIN: bb | DOUT: xx, EMPTY: 0, FULL: 0
WR: 0, OE: 1, DIN: bc | DOUT: xx, EMPTY: 0, FULL: 0
WR: 0, OE: 1, DIN: bd | DOUT: xx, EMPTY: 0, FULL: 0
WR: 0, OE: 1, DIN: be | DOUT: xx, EMPTY: 0, FULL: 0
WR: 0, OE: 1, DIN: bf | DOUT: xx, EMPTY: 0, FULL: 0
WR: 0, OE: 1, DIN: c0 | DOUT: xx, EMPTY: 0, FULL: 0
WR: 0, OE: 1, DIN: c1 | DOUT: xx, EMPTY: 0, FULL: 0
WR: 0, OE: 1, DIN: c2 | DOUT: xx, EMPTY: 0, FULL: 0
WR: 0, OE: 1, DIN: c3 | DOUT: xx, EMPTY: 0, FULL: 0
WR: 0, OE: 1, DIN: c4 | DOUT: xx, EMPTY: 0, FULL: 0
WR: 0, OE: 1, DIN: c5 | DOUT: xx, EMPTY: 0, FULL: 0
WR: 0, OE: 1, DIN: c6 | DOUT: xx, EMPTY: 0, FULL: 0
WR: 0, OE: 1, DIN: c7 | DOUT: xx, EMPTY: 0, FULL: 0
WR: 0, OE: 1, DIN: c8 | DOUT: xx, EMPTY: 0, FULL: 0
WR: 0, OE: 1, DIN: c9 | DOUT: xx, EMPTY: 0, FULL: 0
WR: 0, OE: 1, DIN: ca | DOUT: xx, EMPTY: 0, FULL: 0
WR: 0, OE: 1, DIN: cb | DOUT: xx, EMPTY: 0, FULL: 0
WR: 0, OE: 1, DIN: cc | DOUT: xx, EMPTY: 0, FULL: 0
WR: 0, OE: 1, DIN: cd | DOUT: xx, EMPTY: 0, FULL: 0
WR: 0, OE: 1, DIN: ce | DOUT: xx, EMPTY: 0, FULL: 0
WR: 0, OE: 1, DIN: cf | DOUT: xx, EMPTY: 0, FULL: 0
WR: 0, OE: 1, DIN: d0 | DOUT: xx, EMPTY: 0, FULL: 0
WR: 0, OE: 1, DIN: d1 | DOUT: xx, EMPTY: 0, FULL: 0
WR: 0, OE: 1, DIN: d2 | DOUT: xx, EMPTY: 0, FULL: 0
WR: 0, OE: 1, DIN: d3 | DOUT: xx, EMPTY: 0, FULL: 0
WR: 0, OE: 1, DIN: d4 | DOUT: xx, EMPTY: 0, FULL: 0
WR: 0, OE: 1, DIN: d5 | DOUT: xx, EMPTY: 0, FULL: 0
WR: 0, OE: 1, DIN: d6 | DOUT: xx, EMPTY: 0, FULL: 0
WR: 0, OE: 1, DIN: d7 | DOUT: xx, EMPTY: 0, FULL: 0
WR: 0, OE: 1, DIN: d8 | DOUT: xx, EMPTY: 0, FULL: 0
WR: 0, OE: 1, DIN: d9 | DOUT: xx, EMPTY: 0, FULL: 0
WR: 0, OE: 1, DIN: da | DOUT: xx, EMPTY: 0, FULL: 0
WR: 0, OE: 1, DIN: db | DOUT: xx, EMPTY: 0, FULL: 0
WR: 0, OE: 1, DIN: dc | DOUT: xx, EMPTY: 0, FULL: 0
WR: 0, OE: 1, DIN: dd | DOUT: xx, EMPTY: 0, FULL: 0
WR: 0, OE: 1, DIN: de | DOUT: xx, EMPTY: 0, FULL: 0
WR: 0, OE: 1, DIN: df | DOUT: xx, EMPTY: 0, FULL: 0
WR: 0, OE: 1, DIN: e0 | DOUT: xx, EMPTY: 0, FULL: 0
WR: 0, OE: 1, DIN: e1 | DOUT: xx, EMPTY: 0, FULL: 0
WR: 0, OE: 1, DIN: e2 | DOUT: xx, EMPTY: 0, FULL: 0
WR: 0, OE: 1, DIN: e3 | DOUT: xx, EMPTY: 0, FULL: 0
WR: 0, OE: 1, DIN: e4 | DOUT: xx, EMPTY: 0, FULL: 0
WR: 0, OE: 1, DIN: e5 | DOUT: xx, EMPTY: 0, FULL: 0
WR: 0, OE: 1, DIN: e6 | DOUT: xx, EMPTY: 0, FULL: 0
WR: 0, OE: 1, DIN: e7 | DOUT: xx, EMPTY: 0, FULL: 0
WR: 0, OE: 1, DIN: e8 | DOUT: xx, EMPTY: 0, FULL: 0
WR: 0, OE: 1, DIN: e9 | DOUT: xx, EMPTY: 0, FULL: 0
WR: 0, OE: 1, DIN: ea | DOUT: xx, EMPTY: 0, FULL: 0
WR: 0, OE: 1, DIN: eb | DOUT: xx, EMPTY: 0, FULL: 0
WR: 0, OE: 1, DIN: ec | DOUT: xx, EMPTY: 0, FULL: 0
WR: 0, OE: 1, DIN: ed | DOUT: xx, EMPTY: 0, FULL: 0
WR: 0, OE: 1, DIN: ee | DOUT: xx, EMPTY: 0, FULL: 0
WR: 0, OE: 1, DIN: ef | DOUT: xx, EMPTY: 0, FULL: 0
WR: 0, OE: 1, DIN: f0 | DOUT: xx, EMPTY: 0, FULL: 0
WR: 0, OE: 1, DIN: f1 | DOUT: xx, EMPTY: 0, FULL: 0
WR: 0, OE: 1, DIN: f2 | DOUT: xx, EMPTY: 0, FULL: 0
WR: 0, OE: 1, DIN: f3 | DOUT: xx, EMPTY: 0, FULL: 0
WR: 0, OE: 1, DIN: f4 | DOUT: xx, EMPTY: 0, FULL: 0
WR: 0, OE: 1, DIN: f5 | DOUT: xx, EMPTY: 0, FULL: 0
WR: 0, OE: 1, DIN: f6 | DOUT: xx, EMPTY: 0, FULL: 0
WR: 0, OE: 1, DIN: f7 | DOUT: xx, EMPTY: 0, FULL: 0
WR: 0, OE: 1, DIN: f8 | DOUT: xx, EMPTY: 0, FULL: 0
WR: 0, OE: 1, DIN: f9 | DOUT: xx, EMPTY: 0, FULL: 0
WR: 0, OE: 1, DIN: fa | DOUT: xx, EMPTY: 0, FULL: 0
WR: 0, OE: 1, DIN: fb | DOUT: xx, EMPTY: 0, FULL: 0
WR: 0, OE: 1, DIN: fc | DOUT: xx, EMPTY: 0, FULL: 0
WR: 0, OE: 1, DIN: fd | DOUT: xx, EMPTY: 0, FULL: 0
WR: 0, OE: 1, DIN: fe | DOUT: xx, EMPTY: 0, FULL: 0
WR: 0, OE: 1, DIN: ff | DOUT: xx, EMPTY: 0, FULL: 0
WR: 0, OE: 1, DIN: 00 | DOUT: xx, EMPTY: 0, FULL: 0
WR: 0, OE: 1, DIN: 01 | DOUT: xx, EMPTY: 0, FULL: 0
WR: 0, OE: 1, DIN: 02 | DOUT: xx, EMPTY: 0, FULL: 0
WR: 0, OE: 1, DIN: 03 | DOUT: xx, EMPTY: 0, FULL: 0
WR: 0, OE: 1, DIN: 04 | DOUT: xx, EMPTY: 0, FULL: 0
WR: 0, OE: 1, DIN: 05 | DOUT: xx, EMPTY: 0, FULL: 0
WR: 0, OE: 1, DIN: 06 | DOUT: xx, EMPTY: 0, FULL: 0
WR: 0, OE: 1, DIN: 07 | DOUT: xx, EMPTY: 0, FULL: 0
WR: 0, OE: 1, DIN: 08 | DOUT: xx, EMPTY: 0, FULL: 0
WR: 0, OE: 1, DIN: 09 | DOUT: xx, EMPTY: 0, FULL: 0
WR: 0, OE: 1, DIN: 0a | DOUT: xx, EMPTY: 0, FULL: 0
WR: 0, OE: 1, DIN: 0b | DOUT: xx, EMPTY: 0, FULL: 0
WR: 0, OE: 1, DIN: 0c | DOUT: xx, EMPTY: 0, FULL: 0
WR: 0, OE: 1, DIN: 0d | DOUT: xx, EMPTY: 0, FULL: 0
WR: 0, OE: 1, DIN: 0e | DOUT: xx, EMPTY: 0, FULL: 0
WR: 0, OE: 1, DIN: 0f | DOUT: xx, EMPTY: 0, FULL: 0
WR: 0, OE: 1, DIN: 10 | DOUT: xx, EMPTY: 0, FULL: 0
WR: 0, OE: 1, DIN: 11 | DOUT: xx, EMPTY: 0, FULL: 0
WR: 0, OE: 1, DIN: 12 | DOUT: xx, EMPTY: 0, FULL: 0
WR: 0, OE: 1, DIN: 13 | DOUT: xx, EMPTY: 0, FULL: 0
WR: 0, OE: 1, DIN: 14 | DOUT: xx, EMPTY: 0, FULL: 0
WR: 0, OE: 1, DIN: 15 | DOUT: xx, EMPTY: 0, FULL: 0
WR: 0, OE: 1, DIN: 16 | DOUT: xx, EMPTY: 0, FULL: 0
WR: 0, OE: 1, DIN: 17 | DOUT: xx, EMPTY: 0, FULL: 0
WR: 0, OE: 1, DIN: 18 | DOUT: xx, EMPTY: 0, FULL: 0
WR: 0, OE: 1, DIN: 19 | DOUT: xx, EMPTY: 0, FULL: 0
WR: 0, OE: 1, DIN: 1a | DOUT: xx, EMPTY: 0, FULL: 0
WR: 0, OE: 1, DIN: 1b | DOUT: xx, EMPTY: 0, FULL: 0
WR: 0, OE: 1, DIN: 1c | DOUT: xx, EMPTY: 0, FULL: 0
WR: 0, OE: 1, DIN: 1d | DOUT: xx, EMPTY: 0, FULL: 0
WR: 0, OE: 1, DIN: 1e | DOUT: xx, EMPTY: 0, FULL: 0
WR: 0, OE: 1, DIN: 1f | DOUT: xx, EMPTY: 0, FULL: 0
WR: 0, OE: 1, DIN: 20 | DOUT: xx, EMPTY: 0, FULL: 0
WR: 0, OE: 1, DIN: 21 | DOUT: xx, EMPTY: 0, FULL: 0
WR: 0, OE: 1, DIN: 22 | DOUT: xx, EMPTY: 0, FULL: 0
WR: 0, OE: 1, DIN: 23 | DOUT: xx, EMPTY: 0, FULL: 0
WR: 0, OE: 1, DIN: 24 | DOUT: xx, EMPTY: 0, FULL: 0
WR: 0, OE: 1, DIN: 25 | DOUT: xx, EMPTY: 0, FULL: 0
WR: 0, OE: 1, DIN: 26 | DOUT: xx, EMPTY: 0, FULL: 0
WR: 0, OE: 1, DIN: 27 | DOUT: xx, EMPTY: 0, FULL: 0
WR: 0, OE: 1, DIN: 28 | DOUT: xx, EMPTY: 0, FULL: 0
WR: 0, OE: 1, DIN: 29 | DOUT: xx, EMPTY: 0, FULL: 0
WR: 0, OE: 1, DIN: 2a | DOUT: xx, EMPTY: 0, FULL: 0
WR: 0, OE: 1, DIN: 2b | DOUT: xx, EMPTY: 0, FULL: 0
WR: 0, OE: 1, DIN: 2c | DOUT: xx, EMPTY: 0, FULL: 0
WR: 0, OE: 1, DIN: 2d | DOUT: xx, EMPTY: 0, FULL: 0
WR: 0, OE: 1, DIN: 2e | DOUT: xx, EMPTY: 0, FULL: 0
WR: 0, OE: 1, DIN: 2f | DOUT: xx, EMPTY: 0, FULL: 0
WR: 0, OE: 1, DIN: 30 | DOUT: xx, EMPTY: 0, FULL: 0
WR: 0, OE: 1, DIN: 31 | DOUT: xx, EMPTY: 0, FULL: 0
WR: 0, OE: 1, DIN: 32 | DOUT: xx, EMPTY: 0, FULL: 0
WR: 0, OE: 1, DIN: 33 | DOUT: xx, EMPTY: 0, FULL: 0
WR: 0, OE: 1, DIN: 34 | DOUT: xx, EMPTY: 0, FULL: 0
WR: 0, OE: 1, DIN: 35 | DOUT: xx, EMPTY: 0, FULL: 0
WR: 0, OE: 1, DIN: 36 | DOUT: xx, EMPTY: 0, FULL: 0
WR: 0, OE: 1, DIN: 37 | DOUT: xx, EMPTY: 0, FULL: 0
WR: 0, OE: 1, DIN: 38 | DOUT: xx, EMPTY: 0, FULL: 0
WR: 0, OE: 1, DIN: 39 | DOUT: xx, EMPTY: 0, FULL: 0
WR: 0, OE: 1, DIN: 3a | DOUT: xx, EMPTY: 0, FULL: 0
WR: 0, OE: 1, DIN: 3b | DOUT: xx, EMPTY: 0, FULL: 0
WR: 0, OE: 1, DIN: 3c | DOUT: xx, EMPTY: 0, FULL: 0
WR: 0, OE: 1, DIN: 3d | DOUT: xx, EMPTY: 0, FULL: 0
WR: 0, OE: 1, DIN: 3e | DOUT: xx, EMPTY: 0, FULL: 0
WR: 0, OE: 1, DIN: 3f | DOUT: xx, EMPTY: 0, FULL: 0
WR: 0, OE: 1, DIN: 40 | DOUT: xx, EMPTY: 0, FULL: 0
WR: 0, OE: 1, DIN: 41 | DOUT: xx, EMPTY: 0, FULL: 0
WR: 0, OE: 1, DIN: 42 | DOUT: xx, EMPTY: 0, FULL: 0
WR: 0, OE: 1, DIN: 43 | DOUT: xx, EMPTY: 0, FULL: 0
WR: 0, OE: 1, DIN: 44 | DOUT: xx, EMPTY: 0, FULL: 0
WR: 0, OE: 1, DIN: 45 | DOUT: xx, EMPTY: 0, FULL: 0
WR: 0, OE: 1, DIN: 46 | DOUT: xx, EMPTY: 0, FULL: 0
WR: 0, OE: 1, DIN: 47 | DOUT: xx, EMPTY: 0, FULL: 0
WR: 0, OE: 1, DIN: 48 | DOUT: xx, EMPTY: 0, FULL: 0
WR: 0, OE: 1, DIN: 49 | DOUT: xx, EMPTY: 0, FULL: 0
